SEC-DED/sec_ded_vivado/sec_ded_vivado.sim/sim_1/behav/xsim/tb_pressure_9bit.vcd
$date
   Thu Nov  6 21:31:50 2025
$end

$version
  2024.2.0
  $dumpfile ("tb_pressure_9bit.vcd") 
$end

$timescale
  1ps
$end

$scope module tb_pressure_9bit $end
$var reg 1 ! clk $end
$var reg 1 " rst_n $end
$var reg 8 # i_data_byte [7:0] $end
$var reg 1 $ i_valid_byte $end
$var wire 1 % enc_valid_serial $end
$var wire 9 & enc_data_serial [8:0] $end
$var wire 1 ' dec_valid_byte $end
$var wire 8 ( dec_data_byte [7:0] $end
$var wire 1 ) dec_uncorrectable $end
$var wire 9 * tb_data_serial [8:0] $end
$var wire 1 + tb_valid_serial $end
$var integer 32 , i [31:0] $end
$var integer 32 - byte_idx [31:0] $end
$var integer 32 . rx_cnt [31:0] $end
$scope module enc_top $end
$var wire 1 / clk $end
$var wire 1 0 rst_n $end
$var wire 1 1 i_valid_byte $end
$var wire 8 2 i_data_byte [7:0] $end
$var wire 1 % o_valid_serial $end
$var wire 9 & o_data_serial [8:0] $end
$var wire 64 3 data64 [63:0] $end
$var wire 1 4 data64_valid $end
$var wire 1 5 enc_valid_out $end
$var wire 72 6 enc_codeword [71:0] $end
$var reg 72 7 enc_codeword_r [71:0] $end
$var reg 1 8 enc_valid_r $end
$var wire 1 9 p2s_valid_serial $end
$var wire 9 : p2s_data_serial [8:0] $end
$scope module input_s2p $end
$var wire 1 / clk $end
$var wire 1 0 rst_n $end
$var reg 64 ; o_data_parral [63:0] $end
$var wire 1 4 o_valid_parral_data $end
$var wire 1 1 i_valid_serial_data $end
$var wire 8 2 i_data_serial [7:0] $end
$var reg 64 < shift_reg [63:0] $end
$var reg 3 = cnt [2:0] $end
$var reg 1 > valid_sr $end
$upscope $end
$scope module enc $end
$var wire 1 / clk $end
$var wire 1 0 rst_n $end
$var wire 64 3 i_data [63:0] $end
$var wire 1 4 i_valid_datain $end
$var reg 1 ? i_valid_dataout $end
$var reg 72 @ o_data_crypt [71:0] $end
$var integer 32 A pos [31:0] $end
$var integer 32 B p [31:0] $end
$var integer 32 C d_idx [31:0] $end
$var reg 72 D tmp [71:0] $end
$var reg 1 E parity_bit $end
$scope begin Hamming_parity_compute $end
$var integer 32 F pow2 [31:0] $end
$upscope $end
$upscope $end
$scope module output_p2s $end
$var wire 1 / clk $end
$var wire 1 0 rst_n $end
$var wire 1 G i_valid_parral $end
$var wire 72 H i_data_parral [71:0] $end
$var wire 1 9 o_valid_serial $end
$var wire 9 : o_data_serial [8:0] $end
$var reg 1 I error $end
$var reg 72 J shift_reg [71:0] $end
$var reg 3 K cnt [2:0] $end
$var reg 1 L busy $end
$upscope $end
$upscope $end
$scope module dec_top $end
$var wire 1 M clk $end
$var wire 1 N rst_n $end
$var wire 1 + i_valid_serial $end
$var wire 9 * i_data_serial [8:0] $end
$var reg 1 O o_valid_byte $end
$var reg 8 P o_data_byte [7:0] $end
$var reg 1 Q o_uncorrectable $end
$var wire 72 R rec_codeword [71:0] $end
$var wire 1 S rec_valid_parral $end
$var wire 1 T dec_valid_out $end
$var wire 64 U dec_data [63:0] $end
$var wire 1 V dec_uncorrectable $end
$var reg 64 W out_buffer_reg [63:0] $end
$var reg 1 X out_buffer_valid $end
$var reg 1 Y out_buffer_uncorr $end
$var wire 1 Z p2s_valid_serial $end
$var wire 8 [ p2s_data_serial [7:0] $end
$var reg 1 \ uncorr_sr $end
$scope module s2p $end
$var wire 1 M clk $end
$var wire 1 N rst_n $end
$var reg 72 ] o_data_parral [71:0] $end
$var wire 1 S o_valid_parral_data $end
$var wire 1 + i_valid_serial_data $end
$var wire 9 * i_data_serial [8:0] $end
$var reg 72 ^ shift_reg [71:0] $end
$var reg 3 _ cnt [2:0] $end
$var reg 1 ` valid_sr $end
$upscope $end
$scope module dec $end
$var wire 1 M clk $end
$var wire 1 N rst_n $end
$var reg 64 a o_data_decrypt [63:0] $end
$var reg 1 b o_valid_datain $end
$var reg 1 c o_uncorrectable $end
$var wire 1 S i_valid_dataout $end
$var wire 72 R i_data_crypt [71:0] $end
$var integer 32 d pos [31:0] $end
$var integer 32 e p [31:0] $end
$var integer 32 f d_idx [31:0] $end
$var reg 72 g rec [71:0] $end
$var reg 7 h syndrome_bits [6:0] $end
$var reg 7 i syndrome_value_bin [6:0] $end
$var reg 1 j overall_parity $end
$var reg 72 k corrected [71:0] $end
$var reg 1 l uncorrectable $end
$var reg 64 m extracted [63:0] $end
$scope begin compute_syndrome_bits $end
$var integer 32 n pow2 [31:0] $end
$var reg 1 o parity_check $end
$upscope $end
$scope begin parity_check $end
$var integer 32 p pp [31:0] $end
$var integer 32 q pow2_debug [31:0] $end
$var reg 1 r parity_check_dbg $end
$upscope $end
$upscope $end
$scope module output_p2s $end
$var wire 1 M clk $end
$var wire 1 N rst_n $end
$var wire 1 s i_valid_parral $end
$var wire 64 t i_data_parral [63:0] $end
$var wire 1 Z o_valid_serial $end
$var wire 8 [ o_data_serial [7:0] $end
$var reg 1 u error $end
$var reg 64 v shift_reg [63:0] $end
$var reg 3 w cnt [2:0] $end
$var reg 1 x busy $end
$upscope $end
$upscope $end
$scope begin Fuck_vivado $end
$var reg 1 y mismatch $end
$upscope $end
$upscope $end
$enddefinitions $end

#0
$dumpvars
0!
0"
b0 #
0$
0%
b0 &
x'
bx (
x)
b0 *
0+
b100000 ,
bx -
b0 .
0/
00
01
b0 2
b0 3
04
05
b0 6
b0 7
08
09
b0 :
b0 ;
b0 <
b0 =
0>
0?
b0 @
b1001000 A
b111 B
b1000000 C
b0 D
0E
b1000000 F
0G
b0 H
0I
b0 J
b0 K
0L
0M
0N
xO
bx P
xQ
b0 R
0S
0T
b0 U
0V
b0 W
0X
0Y
0Z
b0 [
0\
b0 ]
b0 ^
b0 _
0`
b0 a
0b
0c
b1001001 d
b111 e
b1000000 f
b0 g
b0 h
b0 i
0j
b0 k
0l
b0 m
b1000000 n
0o
bx p
bx q
xr
0s
b0 t
0u
b0 v
b0 w
0x
xy
$end

#5000
1!
0'
b0 (
0)
1/
1M
0O
b0 P
0Q

#10000
0!
0/
0M

#15000
1!
1/
1M

#20000
0!
0/
0M

#25000
1!
1/
1M

#30000
0!
0/
0M

#35000
1!
1"
1/
10
1M
1N

#40000
0!
0/
0M

#45000
1!
1/
1M

#50000
0!
0/
0M

#55000
1!
1/
1M

#60000
0!
0/
0M

#65000
1!
1$
b0 -
1/
11
1M

#70000
0!
0/
0M

#75000
1!
b1 #
b1 -
1/
b1 2
b1 =
1M

#80000
0!
0/
0M

#85000
1!
b10 #
b10 -
1/
b10 2
b100000000000000000000000000000000000000000000000000000000 <
b10 =
1M

#90000
0!
0/
0M

#95000
1!
b11 #
b11 -
1/
b11 2
b1000000001000000000000000000000000000000000000000000000000 <
b11 =
1M

#100000
0!
0/
0M

#105000
1!
b100 #
b100 -
1/
b100 2
b1100000010000000010000000000000000000000000000000000000000 <
b100 =
1M

#110000
0!
0/
0M

#115000
1!
b101 #
b101 -
1/
b101 2
b10000000011000000100000000100000000000000000000000000000000 <
b101 =
1M

#120000
0!
0/
0M

#125000
1!
b110 #
b110 -
1/
b110 2
b10100000100000000110000001000000001000000000000000000000000 <
b110 =
1M

#130000
0!
0/
0M

#135000
1!
b111 #
b111 -
1/
b111 2
b11000000101000001000000001100000010000000010000000000000000 <
b111 =
1M

#140000
0!
0/
0M

#145000
1!
b1000 #
b1000 -
1/
b1000 2
b11100000110000001010000010000000011000000100000000100000000 3
14
b11100000110000001010000010000000011000000100000000100000000 ;
b11100000110000001010000010000000011000000100000000100000000 <
b0 =
1>
b1001000 A
b111 B
b1000000 C
b110100000110000001010000010000000001100000010000001001000000000001 D
0E
b1000000 F
1M

#150000
0!
0/
0M

#155000
1!
b1001 #
b1001 -
1/
b1001 2
04
15
b110100000110000001010000010000000001100000010000001001000000000001 6
b100000000111000001100000010100000100000000110000001000000001 <
b1 =
0>
1?
b110100000110000001010000010000000001100000010000001001000000000001 @
1M

#160000
0!
0/
0M

#165000
1!
b1010 #
b1010 -
1/
b1010 2
05
b110100000110000001010000010000000001100000010000001001000000000001 7
18
b100100001000000001110000011000000101000001000000001100000010 <
b10 =
0?
1G
b110100000110000001010000010000000001100000010000001001000000000001 H
1M

#170000
0!
0/
0M

#175000
1!
b1011 #
1%
b1 &
b1 *
1+
b1011 -
1/
b1011 2
08
19
b1 :
b101000001001000010000000011100000110000001010000010000000011 <
b11 =
0G
b110100000110000001010000010000000001100000010000001001000000000001 J
1L
1M

#180000
0!
0/
0M

#185000
1!
b1100 #
b1001000 &
b1001000 *
b1100 -
1/
b1100 2
b1001000 :
b101100001010000010010000100000000111000001100000010100000100 <
b100 =
b110100000110000001010000010000000001100000010000001001000 J
b1 K
1M
b1000000000000000000000000000000000000000000000000000000000000000 ^
b1 _

#190000
0!
0/
0M

#195000
1!
b1101 #
b10000 &
b10000 *
b1101 -
1/
b1101 2
b10000 :
b110000001011000010100000100100001000000001110000011000000101 <
b101 =
b110100000110000001010000010000000001100000010000 J
b10 K
1M
b1001000000000001000000000000000000000000000000000000000000000000000000 ^
b10 _

#200000
0!
0/
0M

#205000
1!
b1110 #
b1100 &
b1100 *
b1110 -
1/
b1110 2
b1100 :
b110100001100000010110000101000001001000010000000011100000110 <
b110 =
b110100000110000001010000010000000001100 J
b11 K
1M
b10000001001000000000001000000000000000000000000000000000000000000000 ^
b11 _

#210000
0!
0/
0M

#215000
1!
b1111 #
b10000 &
b10000 *
b1111 -
1/
b1111 2
b10000 :
b111000001101000011000000101100001010000010010000100000000111 <
b111 =
b110100000110000001010000010000 J
b100 K
1M
b1100000010000001001000000000001000000000000000000000000000000000000 ^
b100 _

#220000
0!
0/
0M

#225000
1!
b10000 #
b1010 &
b1010 *
b10000 -
1/
b10000 2
b111100001110000011010000110000001011000010100000100100001000 3
14
b1010 :
b111100001110000011010000110000001011000010100000100100001000 ;
b111100001110000011010000110000001011000010100000100100001000 <
b0 =
1>
b1001000 A
b111 B
b1000000 C
b100001111100001110000011010000110000001001100001010000011001000011001001 D
1E
b1000000 F
b110100000110000001010 J
b101 K
1M
b10000000001100000010000001001000000000001000000000000000000000000000 ^
b101 _

#230000
0!
0/
0M

#235000
1!
b10001 #
b100000110 &
b100000110 *
b10001 -
1/
b10001 2
04
15
b100001111100001110000011010000110000001001100001010000011001000011001001 6
b100000110 :
b1000000001111000011100000110100001100000010110000101000001001 <
b1 =
0>
1?
b100001111100001110000011010000110000001001100001010000011001000011001001 @
b110100000110 J
b110 K
1M
b1010000010000000001100000010000001001000000000001000000000000000000 ^
b110 _

#240000
0!
0/
0M

#245000
1!
b10010 #
b110 &
b110 *
b10010 -
1/
b10010 2
05
b100001111100001110000011010000110000001001100001010000011001000011001001 7
18
b110 :
b1000100010000000011110000111000001101000011000000101100001010 <
b10 =
0?
1G
b100001111100001110000011010000110000001001100001010000011001000011001001 H
b110 J
b111 K
1M
b100000110000001010000010000000001100000010000001001000000000001000000000 ^
b111 _

#250000
0!
0/
0M

#255000
1!
b10011 #
b11001001 &
b11001001 *
b10011 -
1/
b10011 2
08
b11001001 :
b1001000010001000100000000111100001110000011010000110000001011 <
b11 =
0G
b100001111100001110000011010000110000001001100001010000011001000011001001 J
b0 K
1M
b110100000110000001010000010000000001100000010000001001000000000001 R
1S
b110100000110000001010000010000000001100000010000001001000000000001 ]
b110100000110000001010000010000000001100000010000001001000000000001 ^
b0 _
1`
b1001001 d
b111 e
b1000000 f
b110100000110000001010000010000000001100000010000001001000000000001 g
b110100000110000001010000010000000001100000010000001001000000000001 k
b11100000110000001010000010000000011000000100000000100000000 m
b1000000 n
0o

#260000
0!
0/
0M

#265000
1!
b10100 #
b11001000 &
b11001000 *
b10100 -
1/
b10100 2
b11001000 :
b1001100010010000100010001000000001111000011100000110100001100 <
b100 =
b100001111100001110000011010000110000001001100001010000011001000 J
b1 K
1M
0S
1T
b11100000110000001010000010000000011000000100000000100000000 U
b11001001000000110100000110000001010000010000000001100000010000001001000 ^
b1 _
0`
b11100000110000001010000010000000011000000100000000100000000 a
1b
b1001000 d
b111 p
b1000000 q
0r

#270000
0!
0/
0M

#275000
1!
b10101 #
b1010000 &
b1010000 *
b10101 -
1/
b10101 2
b1010000 :
b1010000010011000100100001000100010000000011110000111000001101 <
b101 =
b100001111100001110000011010000110000001001100001010000 J
b10 K
1M
0T
b11100000110000001010000010000000011000000100000000100000000 W
1X
b11001000011001001000000110100000110000001010000010000000001100000010000 ^
b10 _
0b
1s
b11100000110000001010000010000000011000000100000000100000000 t

#280000
0!
0/
0M

#285000
1!
b10110 #
b1001100 &
b1001100 *
b10110 -
1/
b10110 2
b1001100 :
b1010100010100000100110001001000010001000100000000111100001110 <
b110 =
b100001111100001110000011010000110000001001100 J
b11 K
1M
0X
1Z
b1010000011001000011001001000000110100000110000001010000010000000001100 ^
b11 _
0s
b11100000110000001010000010000000011000000100000000100000000 v
1x

#290000
0!
0/
0M

#295000
1!
b10111 #
b110000 &
1'
b110000 *
b10111 -
1/
b10111 2
b110000 :
b1011000010101000101000001001100010010000100010001000000001111 <
b111 =
b100001111100001110000011010000110000 J
b100 K
1M
1O
b1 [
b1001100001010000011001000011001001000000110100000110000001010000010000 ^
b100 _
b111000001100000010100000100000000110000001000000001 v
b1 w

#300000
0!
0/
0M

#305000
1!
b11000 #
b11010 &
b1 (
b11010 *
b11000 -
b1 .
1/
b11000 2
b1011100010110000101010001010000010011000100100001000100010000 3
14
b11010 :
b1011100010110000101010001010000010011000100100001000100010000 ;
b1011100010110000101010001010000010011000100100001000100010000 <
b0 =
1>
b1001000 A
b111 B
b1000000 C
b100010111100010110000101010001010000010001100010010000101001000100001000 D
1E
b1000000 F
b100001111100001110000011010 J
b101 K
1M
b1 P
b10 [
b110000001001100001010000011001000011001001000000110100000110000001010 ^
b101 _
b1110000011000000101000001000000001100000010 v
b10 w

#310000
0!
0/
0M

#315000
1!
b11001 #
b100001110 &
b10 (
b100001110 *
b11001 -
b10 .
1/
b11001 2
04
15
b100010111100010110000101010001010000010001100010010000101001000100001000 6
b100001110 :
b1100000010111000101100001010100010100000100110001001000010001 <
b1 =
0>
1?
b100010111100010110000101010001010000010001100010010000101001000100001000 @
b100001111100001110 J
b110 K
1M
b10 P
b11 [
b11010000110000001001100001010000011001000011001001000000110100000110 ^
b110 _
b11100000110000001010000010000000011 v
b11 w

#320000
0!
0/
0M

#325000
1!
b11010 #
b100001111 &
b11 (
b100001111 *
b11010 -
b11 .
1/
b11010 2
05
b100010111100010110000101010001010000010001100010010000101001000100001000 7
18
b100001111 :
b1100100011000000101110001011000010101000101000001001100010010 <
b10 =
0?
1G
b100010111100010110000101010001010000010001100010010000101001000100001000 H
b100001111 J
b111 K
1M
b11 P
b100 [
b100001110000011010000110000001001100001010000011001000011001001000000110 ^
b111 _
b111000001100000010100000100 v
b100 w

#330000
0!
0/
0M

#335000
1!
b11011 #
b100001000 &
b100 (
b100001000 *
b11011 -
b100 .
1/
b11011 2
08
b100001000 :
b1101000011001000110000001011100010110000101010001010000010011 <
b11 =
0G
b100010111100010110000101010001010000010001100010010000101001000100001000 J
b0 K
1M
b100 P
b100001111100001110000011010000110000001001100001010000011001000011001001 R
1S
b101 [
b100001111100001110000011010000110000001001100001010000011001000011001001 ]
b100001111100001110000011010000110000001001100001010000011001000011001001 ^
b0 _
1`
b1001001 d
b111 e
b1000000 f
b100001111100001110000011010000110000001001100001010000011001000011001001 g
b100001111100001110000011010000110000001001100001010000011001000011001001 k
b111100001110000011010000110000001011000010100000100100001000 m
b1000000 n
0o
b1110000011000000101 v
b101 w

#340000
0!
0/
0M

#345000
1!
b11100 #
b101001000 &
b101 (
b101001000 *
b11100 -
b101 .
1/
b11100 2
b101001000 :
b1101100011010000110010001100000010111000101100001010100010100 <
b100 =
b100010111100010110000101010001010000010001100010010000101001000 J
b1 K
1M
b101 P
0S
1T
b111100001110000011010000110000001011000010100000100100001000 U
b110 [
b100001000100001111100001110000011010000110000001001100001010000011001000 ^
b1 _
0`
b111100001110000011010000110000001011000010100000100100001000 a
1b
b1001000 d
b111 p
b1000000 q
0r
b11100000110 v
b110 w

#350000
0!
0/
0M

#355000
1!
b11101 #
b10010000 &
b110 (
b10010000 *
b11101 -
b110 .
1/
b11101 2
b10010000 :
b1110000011011000110100001100100011000000101110001011000010101 <
b101 =
b100010111100010110000101010001010000010001100010010000 J
b10 K
1M
b110 P
0T
b111100001110000011010000110000001011000010100000100100001000 W
1X
b111 [
b101001000100001000100001111100001110000011010000110000001001100001010000 ^
b10 _
0b
1s
b111100001110000011010000110000001011000010100000100100001000 t
b111 v
b111 w

#360000
0!
0/
0M

#365000
1!
b11110 #
b10001100 &
b111 (
b10001100 *
b11110 -
b111 .
1/
b11110 2
b10001100 :
b1110100011100000110110001101000011001000110000001011100010110 <
b110 =
b100010111100010110000101010001010000010001100 J
b11 K
1M
b111 P
0X
b1000 [
b10010000101001000100001000100001111100001110000011010000110000001001100 ^
b11 _
0s
b111100001110000011010000110000001011000010100000100100001000 v
b0 w

#370000
0!
0/
0M

#375000
1!
b11111 #
b1010000 &
b1000 (
b1010000 *
b11111 -
b1000 .
1/
b11111 2
b1010000 :
b1111000011101000111000001101100011010000110010001100000010111 <
b111 =
b100010111100010110000101010001010000 J
b100 K
1M
b1000 P
b1001 [
b10001100010010000101001000100001000100001111100001110000011010000110000 ^
b100 _
b1111000011100000110100001100000010110000101000001001 v
b1 w

#380000
0!
0/
0M

#385000
1!
b0 #
0$
b101010 &
b1001 (
b101010 *
b100000 -
b1001 .
1/
01
b0 2
b1111100011110000111010001110000011011000110100001100100011000 3
14
b101010 :
b1111100011110000111010001110000011011000110100001100100011000 ;
b1111100011110000111010001110000011011000110100001100100011000 <
b0 =
1>
b1001000 A
b111 B
b1000000 C
b11110100011110000111010001110000011001100011010000111001000111000000 D
0E
b1000000 F
b100010111100010110000101010 J
b101 K
1M
b1001 P
b1010 [
b1010000010001100010010000101001000100001000100001111100001110000011010 ^
b101 _
b11110000111000001101000011000000101100001010 v
b10 w

#390000
0!
0/
0M

#395000
1!
b100010110 &
b1010 (
b100010110 *
b1010 .
1/
04
15
b11110100011110000111010001110000011001100011010000111001000111000000 6
b100010110 :
0>
1?
b11110100011110000111010001110000011001100011010000111001000111000000 @
b100010111100010110 J
b110 K
1M
b1010 P
b1011 [
b101010001010000010001100010010000101001000100001000100001111100001110 ^
b110 _
b111100001110000011010000110000001011 v
b11 w

#400000
0!
0/
0M

#405000
1!
b100010111 &
b1011 (
b100010111 *
b1011 .
1/
05
b11110100011110000111010001110000011001100011010000111001000111000000 7
18
b100010111 :
0?
1G
b11110100011110000111010001110000011001100011010000111001000111000000 H
b100010111 J
b111 K
1M
b1011 P
b1100 [
b100010110000101010001010000010001100010010000101001000100001000100001111 ^
b111 _
b1111000011100000110100001100 v
b100 w

#410000
0!
0/
0M

#415000
1!
b111000000 &
b1100 (
b111000000 *
b1100 .
1/
08
b111000000 :
0G
b11110100011110000111010001110000011001100011010000111001000111000000 J
b0 K
1M
b1100 P
b100010111100010110000101010001010000010001100010010000101001000100001000 R
1S
b1101 [
b100010111100010110000101010001010000010001100010010000101001000100001000 ]
b100010111100010110000101010001010000010001100010010000101001000100001000 ^
b0 _
1`
b1001001 d
b111 e
b1000000 f
b100010111100010110000101010001010000010001100010010000101001000100001000 g
b100010111100010110000101010001010000010001100010010000101001000100001000 k
b1011100010110000101010001010000010011000100100001000100010000 m
b1000000 n
0o
b11110000111000001101 v
b101 w

#420000
0!
0/
0M

#425000
1!
b111001000 &
b1101 (
b111001000 *
b1101 .
1/
b111001000 :
b11110100011110000111010001110000011001100011010000111001000 J
b1 K
1M
b1101 P
0S
1T
b1011100010110000101010001010000010011000100100001000100010000 U
b1110 [
b111000000100010111100010110000101010001010000010001100010010000101001000 ^
b1 _
0`
b1011100010110000101010001010000010011000100100001000100010000 a
1b
b1001000 d
b111 p
b1000000 q
0r
b111100001110 v
b110 w

#430000
0!
0/
0M

#435000
1!
b11010000 &
b1110 (
b11010000 *
b1110 .
1/
b11010000 :
b11110100011110000111010001110000011001100011010000 J
b10 K
1M
b1110 P
0T
b1011100010110000101010001010000010011000100100001000100010000 W
1X
b1111 [
b111001000111000000100010111100010110000101010001010000010001100010010000 ^
b10 _
0b
1s
b1011100010110000101010001010000010011000100100001000100010000 t
b1111 v
b111 w

#440000
0!
0/
0M

#445000
1!
b11001100 &
b1111 (
b11001100 *
b1111 .
1/
b11001100 :
b11110100011110000111010001110000011001100 J
b11 K
1M
b1111 P
0X
b10000 [
b11010000111001000111000000100010111100010110000101010001010000010001100 ^
b11 _
0s
b1011100010110000101010001010000010011000100100001000100010000 v
b0 w

#450000
0!
0/
0M

#455000
1!
b1110000 &
b10000 (
b1110000 *
b10000 .
1/
b1110000 :
b11110100011110000111010001110000 J
b100 K
1M
b10000 P
b10001 [
b11001100011010000111001000111000000100010111100010110000101010001010000 ^
b100 _
b10111000101100001010100010100000100110001001000010001 v
b1 w

#460000
0!
0/
0M

#465000
1!
b111010 &
b10001 (
b111010 *
b10001 .
1/
b111010 :
b11110100011110000111010 J
b101 K
1M
b10001 P
b10010 [
b1110000011001100011010000111001000111000000100010111100010110000101010 ^
b101 _
b101110001011000010101000101000001001100010010 v
b10 w

#470000
0!
0/
0M

#475000
1!
b100011110 &
b10010 (
b100011110 *
b10010 .
1/
b100011110 :
b11110100011110 J
b110 K
1M
b10010 P
b10011 [
b111010001110000011001100011010000111001000111000000100010111100010110 ^
b110 _
b1011100010110000101010001010000010011 v
b11 w

#480000
0!
0/
0M

#485000
1!
b11110 &
b10011 (
b11110 *
b10011 .
1/
b11110 :
b11110 J
b111 K
1M
b10011 P
b10100 [
b100011110000111010001110000011001100011010000111001000111000000100010111 ^
b111 _
b10111000101100001010100010100 v
b100 w

#490000
0!
0/
0M

#495000
1!
0%
b10100 (
0+
b10100 .
1/
09
0L
1M
b10100 P
b11110100011110000111010001110000011001100011010000111001000111000000 R
1S
b10101 [
b11110100011110000111010001110000011001100011010000111001000111000000 ]
b11110100011110000111010001110000011001100011010000111001000111000000 ^
b0 _
1`
b1001001 d
b111 e
b1000000 f
b11110100011110000111010001110000011001100011010000111001000111000000 g
b11110100011110000111010001110000011001100011010000111001000111000000 k
b1111100011110000111010001110000011011000110100001100100011000 m
b1000000 n
0o
b101110001011000010101 v
b101 w

#500000
0!
0/
0M

#505000
1!
b10101 (
b10101 .
1/
1M
b10101 P
0S
1T
b1111100011110000111010001110000011011000110100001100100011000 U
b10110 [
0`
b1111100011110000111010001110000011011000110100001100100011000 a
1b
b1001000 d
b111 p
b1000000 q
0r
b1011100010110 v
b110 w

#510000
0!
0/
0M

#515000
1!
b10110 (
b10110 .
1/
1M
b10110 P
0T
b1111100011110000111010001110000011011000110100001100100011000 W
1X
b10111 [
0b
1s
b1111100011110000111010001110000011011000110100001100100011000 t
b10111 v
b111 w

#520000
0!
0/
0M

#525000
1!
b10111 (
b10111 .
1/
1M
b10111 P
0X
b11000 [
0s
b1111100011110000111010001110000011011000110100001100100011000 v
b0 w

#530000
0!
0/
0M

#535000
1!
b11000 (
b11000 .
1/
1M
b11000 P
b11001 [
b11111000111100001110100011100000110110001101000011001 v
b1 w

#540000
0!
0/
0M

#545000
1!
b11001 (
b11001 .
1/
1M
b11001 P
b11010 [
b111110001111000011101000111000001101100011010 v
b10 w

#550000
0!
0/
0M

#555000
1!
b11010 (
b11010 .
1/
1M
b11010 P
b11011 [
b1111100011110000111010001110000011011 v
b11 w

#560000
0!
0/
0M

#565000
1!
b11011 (
b11011 .
1/
1M
b11011 P
b11100 [
b11111000111100001110100011100 v
b100 w

#570000
0!
0/
0M

#575000
1!
b11100 (
b11100 .
1/
1M
b11100 P
b11101 [
b111110001111000011101 v
b101 w

#580000
0!
0/
0M

#585000
1!
b11101 (
b11101 .
1/
1M
b11101 P
b11110 [
b1111100011110 v
b110 w

#590000
0!
0/
0M

#595000
1!
b11110 (
b11110 .
1/
1M
b11110 P
b11111 [
b11111 v
b111 w

#600000
0!
0/
0M

#605000
1!
b11111 (
b11111 .
1/
1M
b11111 P
0Z
0x

#610000
0!
0/
0M

#615000
1!
0'
b100000 .
1/
1M
0O

