SEC-DED/sec_ded_vivado/sec_ded_vivado.sim/sim_1/behav/xsim/tb_top_encdec.vcd
$date
   Thu Nov  6 16:34:29 2025
$end

$version
  2024.2.0
  $dumpfile ("tb_top_encdec.vcd") 
$end

$timescale
  1ps
$end

$scope module tb_top_encdec $end
$var reg 1 ! clk $end
$var reg 1 " rst_n $end
$var reg 1 # i_valid_byte $end
$var reg 8 $ i_data_byte [7:0] $end
$var wire 1 % o_valid_serial $end
$var wire 9 & o_data_serial [8:0] $end
$var wire 1 ' o_valid_byte_dec $end
$var wire 8 ( o_data_byte_dec [7:0] $end
$var wire 1 ) o_uncorrectable $end
$var integer 32 * rec_cnt [31:0] $end
$var integer 32 + tx_idx [31:0] $end
$var reg 1 , frame_sent $end
$scope module tx $end
$var wire 1 - clk $end
$var wire 1 . rst_n $end
$var wire 1 / i_valid_byte $end
$var wire 8 0 i_data_byte [7:0] $end
$var wire 1 % o_valid_serial $end
$var wire 9 & o_data_serial [8:0] $end
$var reg 3 1 byte_cnt [2:0] $end
$var reg 64 2 data64 [63:0] $end
$var reg 1 3 assembled $end
$var reg 1 4 assembled_req $end
$var wire 1 5 enc_valid_out $end
$var wire 72 6 enc_codeword [71:0] $end
$var reg 72 7 enc_codeword_r [71:0] $end
$var reg 1 8 enc_valid_r $end
$scope module enc $end
$var wire 1 - clk $end
$var wire 1 . rst_n $end
$var wire 64 9 i_data [63:0] $end
$var wire 1 : i_valid_datain $end
$var reg 1 ; i_valid_dataout $end
$var reg 72 < o_data_crypt [71:0] $end
$var integer 32 = pos [31:0] $end
$var integer 32 > p [31:0] $end
$var integer 32 ? d_idx [31:0] $end
$var reg 72 @ tmp [71:0] $end
$var reg 1 A parity_bit $end
$scope begin Hamming_parity_compute $end
$var integer 32 B pow2 [31:0] $end
$upscope $end
$upscope $end
$scope module p2s $end
$var wire 1 - clk $end
$var wire 1 C i_valid_parral $end
$var wire 72 D i_data_parral [71:0] $end
$var wire 1 % o_valid_serial $end
$var wire 9 & o_data_serial [8:0] $end
$var reg 3 E word_cnt [2:0] $end
$var reg 4 F words_remaining [3:0] $end
$var reg 1 G sending $end
$var reg 72 H buffer [71:0] $end
$var reg 2 I wptr [1:0] $end
$var reg 2 J rptr [1:0] $end
$var reg 3 K fifo_count [2:0] $end
$var integer 32 L fi [31:0] $end
$var reg 9 M data_out_r [8:0] $end
$var reg 1 N valid_out_r $end
$upscope $end
$upscope $end
$scope module rx $end
$var wire 1 O clk $end
$var wire 1 P rst_n $end
$var wire 1 % i_valid_serial $end
$var wire 9 & i_data_serial [8:0] $end
$var reg 1 Q o_valid_byte $end
$var reg 8 R o_data_byte [7:0] $end
$var reg 1 S o_uncorrectable $end
$var wire 72 T rec_codeword [71:0] $end
$var wire 1 U rec_valid_parral $end
$var wire 1 V dec_valid_out $end
$var wire 64 W dec_data [63:0] $end
$var wire 1 X dec_uncorrectable $end
$var reg 3 Y out_idx [2:0] $end
$var reg 64 Z out_buffer [63:0] $end
$var reg 1 [ start_stream $end
$var reg 1 \ frame_uncorr $end
$scope module s2p $end
$var wire 1 O clk $end
$var reg 72 ] o_data_parral [71:0] $end
$var reg 1 ^ o_valid_parral_data $end
$var wire 1 % i_valid_serial_data $end
$var wire 9 & i_data_serial [8:0] $end
$var reg 72 _ buffer [71:0] $end
$var reg 3 ` idx [2:0] $end
$upscope $end
$scope module dec $end
$var wire 1 O clk $end
$var wire 1 P rst_n $end
$var reg 64 a o_data_decrypt [63:0] $end
$var reg 1 b o_valid_datain $end
$var reg 1 c o_uncorrectable $end
$var wire 1 U i_valid_dataout $end
$var wire 72 T i_data_crypt [71:0] $end
$var integer 32 d pos [31:0] $end
$var integer 32 e p [31:0] $end
$var integer 32 f d_idx [31:0] $end
$var reg 72 g rec [71:0] $end
$var reg 7 h syndrome_bits [6:0] $end
$var reg 7 i syndrome_value_bin [6:0] $end
$var reg 1 j overall_parity $end
$var reg 72 k corrected [71:0] $end
$var reg 1 l uncorrectable $end
$var reg 64 m extracted [63:0] $end
$scope begin compute_syndrome_bits $end
$var integer 32 n pow2 [31:0] $end
$var reg 1 o parity_check $end
$upscope $end
$scope begin parity_check $end
$var integer 32 p pp [31:0] $end
$var integer 32 q pow2_debug [31:0] $end
$var reg 1 r parity_check_dbg $end
$upscope $end
$upscope $end
$upscope $end
$scope begin gener $end
$var integer 32 s k [31:0] $end
$var reg 1 t mismatch $end
$upscope $end
$scope task send_byte $end
$var reg 8 u b [7:0] $end
$upscope $end
$upscope $end
$enddefinitions $end

#0
$dumpvars
0!
0"
0#
b0 $
0%
b0 &
0'
b0 (
0)
b0 *
b0 +
0,
0-
0.
0/
b0 0
b0 1
b0 2
03
04
05
b0 6
b0 7
08
b0 9
0:
0;
b0 <
b1001001 =
b111 >
b1000000 ?
b0 @
0A
b1000000 B
0C
b0 D
b0 E
b0 F
0G
b0 H
b0 I
b0 J
b0 K
b100 L
b0 M
0N
0O
0P
0Q
b0 R
0S
b0 T
0U
0V
b0 W
0X
b0 Y
b0 Z
0[
0\
b0 ]
0^
b0 _
b0 `
b0 a
0b
0c
b1001001 d
b111 e
b1000000 f
b0 g
b0 h
b0 i
0j
b0 k
0l
b0 m
b1000000 n
0o
bx p
bx q
xr
bx s
xt
bx u
$end

#5000
1!
1-
1O

#10000
0!
0-
0O

#15000
1!
1"
1-
1.
1O
1P

#20000
0!
0-
0O

#25000
1!
1-
1O

#30000
0!
0-
0O

#35000
1!
1-
1O
b1 u

#40000
0!
1#
b1 $
0-
1/
b1 0
0O

#45000
1!
b1 +
1-
b1 1
b1 2
b1 9
b1001001 =
b111 >
b1000000 ?
b100000000000000000000000000000000000000000000000000000000000000000000111 @
0A
b1000000 B
1O

#50000
0!
0#
0-
0/
0O

#55000
1!
1-
1O
b100011 u

#60000
0!
1#
b100011 $
0-
1/
b100011 0
0O

#65000
1!
b10 +
1-
b10 1
b10001100000001 2
b10001100000001 9
b1001001 =
b111 >
b1000000 ?
b100000000000000000000000000000000000000000000000000001001011000000000111 @
0A
b1000000 B
1O

#70000
0!
0#
0-
0/
0O

#75000
1!
1-
1O
b1000101 u

#80000
0!
1#
b1000101 $
0-
1/
b1000101 0
0O

#85000
1!
b11 +
1-
b11 1
b10001010010001100000001 2
b10001010010001100000001 9
b1001001 =
b111 >
b1000000 ?
b1000101001000011000000000101 @
0A
b1000000 B
1O

#90000
0!
0#
0-
0/
0O

#95000
1!
1-
1O
b1100111 u

#100000
0!
1#
b1100111 $
0-
1/
b1100111 0
0O

#105000
1!
b100 +
1-
b100 1
b1100111010001010010001100000001 2
b1100111010001010010001100000001 9
b1001001 =
b111 >
b1000000 ?
b100000000000000000000000000000000001100111101000101001000011000000000100 @
0A
b1000000 B
1O

#110000
0!
0#
0-
0/
0O

#115000
1!
1-
1O
b10001001 u

#120000
0!
1#
b10001001 $
0-
1/
b10001001 0
0O

#125000
1!
b101 +
1-
b101 1
b1000100101100111010001010010001100000001 2
b1000100101100111010001010010001100000001 9
b1001001 =
b111 >
b1000000 ?
b100000000000000000000000001000100101100101101000101001000011000000000111 @
0A
b1000000 B
1O

#130000
0!
0#
0-
0/
0O

#135000
1!
1-
1O
b10101011 u

#140000
0!
1#
b10101011 $
0-
1/
b10101011 0
0O

#145000
1!
b110 +
1-
b110 1
b101010111000100101100111010001010010001100000001 2
b101010111000100101100111010001010010001100000001 9
b1001001 =
b111 >
b1000000 ?
b100000000000000000101010111000100101100111101000101001000011000010001100 @
0A
b1000000 B
1O

#150000
0!
0#
0-
0/
0O

#155000
1!
1-
1O
b11001101 u

#160000
0!
1#
b11001101 $
0-
1/
b11001101 0
0O

#165000
1!
b111 +
1-
b111 1
b11001101101010111000100101100111010001010010001100000001 2
b11001101101010111000100101100111010001010010001100000001 9
b1001001 =
b111 >
b1000000 ?
b100000000011001101101010111000100101100101101000101001001011000010000111 @
0A
b1000000 B
1O

#170000
0!
0#
0-
0/
0O

#175000
1!
1-
1O
b11101111 u

#180000
0!
1#
b11101111 $
0-
1/
b11101111 0
0O

#185000
1!
b1000 +
1,
1-
b0 1
b1110111111001101101010111000100101100111010001010010001100000001 2
14
b1110111111001101101010111000100101100111010001010010001100000001 9
b1001001 =
b111 >
b1000000 ?
b111101110111001101101010111000100101100111101000101001000011000000000100 @
0A
b1000000 B
1O

#190000
0!
0#
0-
0/
0O

#195000
1!
1-
13
1:
1O

#200000
0!
0-
0O

#205000
1!
1-
04
15
b111101110111001101101010111000100101100111101000101001000011000000000100 6
1;
b111101110111001101101010111000100101100111101000101001000011000000000100 <
1O

#210000
0!
0-
0O

#215000
1!
1-
03
b111101110111001101101010111000100101100111101000101001000011000000000100 7
18
0:
1C
b111101110111001101101010111000100101100111101000101001000011000000000100 D
1O

#220000
0!
0-
0O

#225000
1!
1-
05
0;
b1 I
b1 K
1O

#230000
0!
0-
0O

#235000
1!
1-
08
0C
b1000 F
1G
b111101110111001101101010111000100101100111101000101001000011000000000100 H
b10 I
b1 J
b0 K
1O

#240000
0!
0-
0O

#245000
1!
1%
b100 &
1-
b1 E
b111 F
b100 M
1N
1O

#250000
0!
0-
0O

#255000
1!
b11000 &
1-
b10 E
b110 F
b11000 M
1N
1O
b100 _
b1 `

#260000
0!
0-
0O

#265000
1!
b101001 &
1-
b11 E
b101 F
b101001 M
1N
1O
b11000000000100 _
b10 `

#270000
0!
0-
0O

#275000
1!
b100111101 &
1-
b100 E
b100 F
b100111101 M
1N
1O
b101001000011000000000100 _
b11 `

#280000
0!
0-
0O

#285000
1!
b100101 &
1-
b101 E
b11 F
b100101 M
1N
1O
b100111101000101001000011000000000100 _
b100 `

#290000
0!
0-
0O

#295000
1!
b101010111 &
1-
b110 E
b10 F
b101010111 M
1N
1O
b100101100111101000101001000011000000000100 _
b101 `

#300000
0!
0-
0O

#305000
1!
b111001101 &
1-
b111 E
b1 F
b111001101 M
1N
1O
b101010111000100101100111101000101001000011000000000100 _
b110 `

#310000
0!
0-
0O

#315000
1!
b111101110 &
1-
b0 E
b0 F
b111101110 M
1N
1O
b111001101101010111000100101100111101000101001000011000000000100 _
b111 `

#320000
0!
0-
0O

#325000
1!
0%
b0 &
1-
0G
b0 M
0N
1O
b111101110111001101101010111000100101100111101000101001000011000000000100 T
1U
b111101110111001101101010111000100101100111101000101001000011000000000100 ]
1^
b111101110111001101101010111000100101100111101000101001000011000000000100 _
b0 `
b1001001 d
b111 e
b1000000 f
b111101110111001101101010111000100101100111101000101001000011000000000100 g
b111101110111001101101010111000100101100111101000101001000011000000000100 k
b1110111111001101101010111000100101100111010001010010001100000001 m
b1000000 n
0o

#330000
0!
0-
0O

#335000
1!
1-
1O
0U
1V
b1110111111001101101010111000100101100111010001010010001100000001 W
0^
b1110111111001101101010111000100101100111010001010010001100000001 a
1b
b1001001 d
b111 p
b1000000 q
0r

#340000
0!
0-
0O

#345000
1!
1-
1O
0V
b1110111111001101101010111000100101100111010001010010001100000001 Z
1[
0b

#350000
0!
0-
0O

#355000
1!
1'
b1 (
1-
1O
1Q
b1 R
b1 Y

#360000
0!
0-
0O

#365000
1!
b100011 (
b1 *
1-
1O
1Q
b100011 R
b10 Y

#370000
0!
0-
0O

#375000
1!
b1000101 (
b10 *
1-
1O
1Q
b1000101 R
b11 Y

#380000
0!
0-
0O

#385000
1!
b1100111 (
b11 *
1-
1O
1Q
b1100111 R
b100 Y

#390000
0!
0-
0O

#395000
1!
b10001001 (
b100 *
1-
1O
1Q
b10001001 R
b101 Y

#400000
0!
0-
0O

#405000
1!
b10101011 (
b101 *
1-
1O
1Q
b10101011 R
b110 Y

#410000
0!
0-
0O

#415000
1!
b11001101 (
b110 *
1-
1O
1Q
b11001101 R
b111 Y

#420000
0!
0-
0O

#425000
1!
b11101111 (
b111 *
1-
1O
1Q
b11101111 R
b0 Y
0[

#430000
0!
0-
0O

#435000
1!
0'
b0 *
b0 +
0,
1-
1O
0Q
b1000 s
0t

