SEC-DED/tb_serpara_trans.vcd
$date
	Thu Nov 06 15:20:22 2025
$end
$version
	Icarus Verilog
$end
$timescale
	1ps
$end
$scope module tb_serpara_trans $end
$var wire 1 ! o_valid_serial $end
$var wire 1 " o_valid_parral_data $end
$var wire 8 # o_data_serial [7:0] $end
$var wire 72 $ o_data_parral [71:0] $end
$var reg 1 % clk $end
$var reg 72 & i_data_parral [71:0] $end
$var reg 1 ' i_valid_parral $end
$scope module p2s $end
$var wire 1 % clk $end
$var wire 72 ( i_data_parral [71:0] $end
$var wire 1 ' i_valid_parral $end
$var wire 8 ) o_data_serial [7:0] $end
$var wire 1 ! o_valid_serial $end
$var reg 72 * buffer [71:0] $end
$var reg 8 + data_out_r [7:0] $end
$var reg 1 , sending $end
$var reg 1 - valid_out_r $end
$var reg 4 . word_cnt [3:0] $end
$var reg 5 / words_remaining [4:0] $end
$scope function clog2 $end
$var integer 32 0 i [31:0] $end
$var integer 32 1 value [31:0] $end
$upscope $end
$upscope $end
$scope module s2p $end
$var wire 1 % clk $end
$var wire 8 2 i_data_serial [7:0] $end
$var wire 1 ! i_valid_serial_data $end
$var reg 72 3 buffer [71:0] $end
$var reg 4 4 idx [3:0] $end
$var reg 72 5 o_data_parral [71:0] $end
$var reg 1 " o_valid_parral_data $end
$scope function clog2 $end
$var integer 32 6 i [31:0] $end
$var integer 32 7 value [31:0] $end
$upscope $end
$upscope $end
$scope task test_one $end
$var reg 72 8 collected [71:0] $end
$var reg 72 9 recovered [71:0] $end
$var reg 1 : recovered_valid $end
$var reg 72 ; vec [71:0] $end
$var integer 32 < i [31:0] $end
$var integer 32 = widx [31:0] $end
$upscope $end
$upscope $end
$enddefinitions $end
#0
$dumpvars
bx =
bx <
b100100011010001010110011110001001101010111100110111101111000000010010 ;
x:
bx 9
bx 8
bx 7
bx 6
b0 5
b0 4
b0 3
b0 2
bx 1
bx 0
b0 /
b0 .
0-
0,
b0 +
b0 *
b0 )
b0 (
0'
b0 &
0%
b0 $
b0 #
0"
0!
$end
#5000
1%
#10000
1'
b100100011010001010110011110001001101010111100110111101111000000010010 &
b100100011010001010110011110001001101010111100110111101111000000010010 (
0%
#15000
b1001 /
1,
b100100011010001010110011110001001101010111100110111101111000000010010 *
1%
#20000
0%
#25000
b1000 /
1!
1-
b1 .
b10010 #
b10010 )
b10010 2
b10010 +
b0 <
0:
b0 9
b0 =
b0 8
0'
1%
#30000
0%
#35000
b1 4
b111 /
b10 .
b11110000 #
b11110000 )
b11110000 2
b11110000 +
1!
1-
b10010 3
b1 <
b1 =
b10010 8
1%
#40000
0%
#45000
b110 /
b11 .
b11011110 #
b11011110 )
b11011110 2
b11011110 +
1!
1-
b10 4
b10 <
b10 =
b1111000000010010 8
b1111000000010010 3
1%
#50000
0%
#55000
b11 4
b101 /
b100 .
b10111100 #
b10111100 )
b10111100 2
b10111100 +
1!
1-
b110111101111000000010010 3
b11 <
b11 =
b110111101111000000010010 8
1%
#60000
0%
#65000
b100 /
b101 .
b10011010 #
b10011010 )
b10011010 2
b10011010 +
1!
1-
b100 4
b100 <
b100 =
b10111100110111101111000000010010 8
b10111100110111101111000000010010 3
1%
#70000
0%
#75000
b101 4
b11 /
b110 .
b1111000 #
b1111000 )
b1111000 2
b1111000 +
1!
1-
b1001101010111100110111101111000000010010 3
b101 <
b101 =
b1001101010111100110111101111000000010010 8
1%
#80000
0%
#85000
b10 /
b111 .
b1010110 #
b1010110 )
b1010110 2
b1010110 +
1!
1-
b110 4
b110 <
b110 =
b11110001001101010111100110111101111000000010010 8
b11110001001101010111100110111101111000000010010 3
1%
#90000
0%
#95000
b111 4
b1 /
b1000 .
b110100 #
b110100 )
b110100 2
b110100 +
1!
1-
b1010110011110001001101010111100110111101111000000010010 3
b111 <
b111 =
b1010110011110001001101010111100110111101111000000010010 8
1%
#100000
0%
#105000
b0 /
b1001 .
b10010 #
b10010 )
b10010 2
b10010 +
1!
1-
b1000 4
b1000 <
b1000 =
b11010001010110011110001001101010111100110111101111000000010010 8
b11010001010110011110001001101010111100110111101111000000010010 3
1%
#110000
0%
#115000
b0 4
1"
b100100011010001010110011110001001101010111100110111101111000000010010 $
b100100011010001010110011110001001101010111100110111101111000000010010 5
0,
b0 #
b0 )
b0 2
b0 +
0!
0-
b100100011010001010110011110001001101010111100110111101111000000010010 3
b1001 <
b1001 =
b100100011010001010110011110001001101010111100110111101111000000010010 8
1%
#120000
0%
#125000
0"
b1010 <
1:
b100100011010001010110011110001001101010111100110111101111000000010010 9
1%
#130000
0%
#135000
b1011 <
1%
#140000
0%
#145000
1%
#150000
0%
#155000
b101010100101010111111111000000000001000100100010001100110100010001100110 ;
1%
#160000
1'
b101010100101010111111111000000000001000100100010001100110100010001100110 &
b101010100101010111111111000000000001000100100010001100110100010001100110 (
0%
#165000
b1001 /
b0 .
1,
b101010100101010111111111000000000001000100100010001100110100010001100110 *
1%
#170000
0%
#175000
b1000 /
1!
1-
b1 .
b1100110 #
b1100110 )
b1100110 2
b1100110 +
b0 <
0:
b0 9
b0 =
b0 8
0'
1%
#180000
0%
#185000
b111 /
b10 .
b1000100 #
b1000100 )
b1000100 2
b1000100 +
1!
1-
b1 4
b100100011010001010110011110001001101010111100110111101111000001100110 3
b1 <
b1 =
b1100110 8
1%
#190000
0%
#195000
b10 4
b110 /
b11 .
b110011 #
b110011 )
b110011 2
b110011 +
1!
1-
b10 <
b10 =
b100010001100110 8
b100100011010001010110011110001001101010111100110111100100010001100110 3
1%
#200000
0%
#205000
b101 /
b100 .
b100010 #
b100010 )
b100010 2
b100010 +
1!
1-
b11 4
b100100011010001010110011110001001101010111100001100110100010001100110 3
b11 <
b11 =
b1100110100010001100110 8
1%
#210000
0%
#215000
b100 4
b100 /
b101 .
b10001 #
b10001 )
b10001 2
b10001 +
1!
1-
b100 <
b100 =
b100010001100110100010001100110 8
b100100011010001010110011110001001101000100010001100110100010001100110 3
1%
#220000
0%
#225000
b11 /
b110 .
b0 #
b0 )
b0 2
b0 +
1!
1-
b101 4
b100100011010001010110011110000001000100100010001100110100010001100110 3
b101 <
b101 =
b1000100100010001100110100010001100110 8
1%
#230000
0%
#235000
b110 4
b10 /
b111 .
b11111111 #
b11111111 )
b11111111 2
b11111111 +
1!
1-
b110 <
b110 =
b100100011010001010110000000000001000100100010001100110100010001100110 3
1%
#240000
0%
#245000
b1 /
b1000 .
b1010101 #
b1010101 )
b1010101 2
b1010101 +
1!
1-
b111 4
b100100011010011111111000000000001000100100010001100110100010001100110 3
b111 <
b111 =
b11111111000000000001000100100010001100110100010001100110 8
1%
#250000
0%
#255000
b1000 4
b0 /
b1001 .
b10101010 #
b10101010 )
b10101010 2
b10101010 +
1!
1-
b1000 <
b1000 =
b101010111111111000000000001000100100010001100110100010001100110 8
b100100101010111111111000000000001000100100010001100110100010001100110 3
1%
#260000
0%
#265000
0,
b0 #
b0 )
b0 2
b0 +
0!
0-
b0 4
1"
b101010100101010111111111000000000001000100100010001100110100010001100110 $
b101010100101010111111111000000000001000100100010001100110100010001100110 5
b101010100101010111111111000000000001000100100010001100110100010001100110 3
b1001 <
b1001 =
b101010100101010111111111000000000001000100100010001100110100010001100110 8
1%
#270000
0%
#275000
0"
b1010 <
1:
b101010100101010111111111000000000001000100100010001100110100010001100110 9
1%
#280000
0%
#285000
b1011 <
1%
#290000
0%
#295000
1%
#300000
0%
#305000
b111111111111111111111111111111111111111111111111111111111111111111111111 ;
1%
#310000
1'
b111111111111111111111111111111111111111111111111111111111111111111111111 &
b111111111111111111111111111111111111111111111111111111111111111111111111 (
0%
#315000
b1001 /
b0 .
1,
b111111111111111111111111111111111111111111111111111111111111111111111111 *
1%
#320000
0%
#325000
b1000 /
1!
1-
b1 .
b11111111 #
b11111111 )
b11111111 2
b11111111 +
b0 <
0:
b0 9
b0 =
b0 8
0'
1%
#330000
0%
#335000
b1 4
b111 /
b10 .
b11111111 #
b11111111 )
b11111111 2
b11111111 +
1!
1-
b101010100101010111111111000000000001000100100010001100110100010011111111 3
b1 <
b1 =
b11111111 8
1%
#340000
0%
#345000
b110 /
b11 .
b11111111 #
b11111111 )
b11111111 2
b11111111 +
1!
1-
b10 4
b10 <
b10 =
b1111111111111111 8
b101010100101010111111111000000000001000100100010001100111111111111111111 3
1%
#350000
0%
#355000
b11 4
b101 /
b100 .
b11111111 #
b11111111 )
b11111111 2
b11111111 +
1!
1-
b101010100101010111111111000000000001000100100010111111111111111111111111 3
b11 <
b11 =
b111111111111111111111111 8
1%
#360000
0%
#365000
b100 /
b101 .
b11111111 #
b11111111 )
b11111111 2
b11111111 +
1!
1-
b100 4
b100 <
b100 =
b11111111111111111111111111111111 8
b101010100101010111111111000000000001000111111111111111111111111111111111 3
1%
#370000
0%
#375000
b101 4
b11 /
b110 .
b11111111 #
b11111111 )
b11111111 2
b11111111 +
1!
1-
b101010100101010111111111000000001111111111111111111111111111111111111111 3
b101 <
b101 =
b1111111111111111111111111111111111111111 8
1%
#380000
0%
#385000
b10 /
b111 .
b11111111 #
b11111111 )
b11111111 2
b11111111 +
1!
1-
b110 4
b110 <
b110 =
b111111111111111111111111111111111111111111111111 8
b101010100101010111111111111111111111111111111111111111111111111111111111 3
1%
#390000
0%
#395000
b111 4
b1 /
b1000 .
b11111111 #
b11111111 )
b11111111 2
b11111111 +
1!
1-
b111 <
b111 =
b11111111111111111111111111111111111111111111111111111111 8
1%
#400000
0%
#405000
b0 /
b1001 .
b11111111 #
b11111111 )
b11111111 2
b11111111 +
1!
1-
b1000 4
b1000 <
b1000 =
b1111111111111111111111111111111111111111111111111111111111111111 8
b101010101111111111111111111111111111111111111111111111111111111111111111 3
1%
#410000
0%
#415000
b0 4
1"
b111111111111111111111111111111111111111111111111111111111111111111111111 $
b111111111111111111111111111111111111111111111111111111111111111111111111 5
0,
b0 #
b0 )
b0 2
b0 +
0!
0-
b111111111111111111111111111111111111111111111111111111111111111111111111 3
b1001 <
b1001 =
b111111111111111111111111111111111111111111111111111111111111111111111111 8
1%
#420000
0%
#425000
0"
b1010 <
1:
b111111111111111111111111111111111111111111111111111111111111111111111111 9
1%
#430000
0%
#435000
b1011 <
1%
#440000
0%
#445000
1%
#450000
0%
#455000
b0 ;
1%
#460000
1'
b0 &
b0 (
0%
#465000
b1001 /
b0 .
1,
b0 *
1%
#470000
0%
#475000
b1000 /
1!
1-
b1 .
b0 <
0:
b0 9
b0 =
b0 8
0'
1%
#480000
0%
#485000
b111 /
b10 .
1!
1-
b1 4
b111111111111111111111111111111111111111111111111111111111111111100000000 3
b1 <
b1 =
1%
#490000
0%
#495000
b10 4
b110 /
b11 .
1!
1-
b10 <
b10 =
b111111111111111111111111111111111111111111111111111111110000000000000000 3
1%
#500000
0%
#505000
b101 /
b100 .
1!
1-
b11 4
b111111111111111111111111111111111111111111111111000000000000000000000000 3
b11 <
b11 =
1%
#510000
0%
#515000
b100 4
b100 /
b101 .
1!
1-
b100 <
b100 =
b111111111111111111111111111111111111111100000000000000000000000000000000 3
1%
#520000
0%
#525000
b11 /
b110 .
1!
1-
b101 4
b111111111111111111111111111111110000000000000000000000000000000000000000 3
b101 <
b101 =
1%
#530000
0%
#535000
b110 4
b10 /
b111 .
1!
1-
b110 <
b110 =
b111111111111111111111111000000000000000000000000000000000000000000000000 3
1%
#540000
0%
#545000
b1 /
b1000 .
1!
1-
b111 4
b111111111111111100000000000000000000000000000000000000000000000000000000 3
b111 <
b111 =
1%
#550000
0%
#555000
b1000 4
b0 /
b1001 .
1!
1-
b1000 <
b1000 =
b111111110000000000000000000000000000000000000000000000000000000000000000 3
1%
#560000
0%
#565000
0,
0!
0-
b0 4
1"
b0 $
b0 5
b0 3
b1001 <
b1001 =
1%
#570000
0%
#575000
0"
b1010 <
1:
1%
#580000
0%
#585000
b1011 <
1%
