SEC-DED/tb_top_encdec.vcd
$date
	Thu Nov 06 15:59:37 2025
$end
$version
	Icarus Verilog
$end
$timescale
	1ps
$end
$scope module tb_top_encdec $end
$var wire 1 ! o_valid_serial $end
$var wire 1 " o_valid_byte_dec $end
$var wire 1 # o_uncorrectable $end
$var wire 8 $ o_data_serial [7:0] $end
$var wire 8 % o_data_byte_dec [7:0] $end
$var reg 1 & clk $end
$var reg 1 ' frame_sent $end
$var reg 8 ( i_data_byte [7:0] $end
$var reg 1 ) i_valid_byte $end
$var reg 1 * rst_n $end
$var integer 32 + rec_cnt [31:0] $end
$var integer 32 , tx_idx [31:0] $end
$scope module rx $end
$var wire 1 & clk $end
$var wire 1 * rst_n $end
$var wire 1 - rec_valid_parral $end
$var wire 72 . rec_codeword [71:0] $end
$var wire 1 ! i_valid_serial $end
$var wire 8 / i_data_serial [7:0] $end
$var wire 1 0 dec_valid_out $end
$var wire 1 1 dec_uncorrectable $end
$var wire 64 2 dec_data [63:0] $end
$var reg 1 3 frame_uncorr $end
$var reg 8 4 o_data_byte [7:0] $end
$var reg 1 # o_uncorrectable $end
$var reg 1 " o_valid_byte $end
$var reg 64 5 out_buffer [63:0] $end
$var reg 3 6 out_idx [2:0] $end
$var reg 1 7 start_stream $end
$scope module dec $end
$var wire 1 & clk $end
$var wire 1 * rst_n $end
$var wire 1 - i_valid_dataout $end
$var wire 72 8 i_data_crypt [71:0] $end
$var reg 72 9 corrected [71:0] $end
$var reg 64 : extracted [63:0] $end
$var reg 64 ; o_data_decrypt [63:0] $end
$var reg 1 1 o_uncorrectable $end
$var reg 1 0 o_valid_datain $end
$var reg 1 < overall_parity $end
$var reg 72 = rec [71:0] $end
$var reg 7 > syndrome_bits [6:0] $end
$var reg 7 ? syndrome_value_bin [6:0] $end
$var reg 1 @ uncorrectable $end
$var integer 32 A d_idx [31:0] $end
$var integer 32 B p [31:0] $end
$var integer 32 C pos [31:0] $end
$scope begin $unm_blk_50 $end
$var reg 1 D parity_check_dbg $end
$var integer 32 E pow2_debug [31:0] $end
$var integer 32 F pp [31:0] $end
$upscope $end
$scope begin compute_syndrome_bits $end
$var reg 1 G parity_check $end
$var integer 32 H pow2 [31:0] $end
$upscope $end
$upscope $end
$scope module s2p $end
$var wire 1 & clk $end
$var wire 1 ! i_valid_serial_data $end
$var wire 8 I i_data_serial [7:0] $end
$var reg 72 J buffer [71:0] $end
$var reg 4 K idx [3:0] $end
$var reg 72 L o_data_parral [71:0] $end
$var reg 1 - o_valid_parral_data $end
$scope function clog2 $end
$var integer 32 M i [31:0] $end
$var integer 32 N value [31:0] $end
$upscope $end
$upscope $end
$upscope $end
$scope module tx $end
$var wire 1 & clk $end
$var wire 8 O i_data_byte [7:0] $end
$var wire 1 ) i_valid_byte $end
$var wire 1 * rst_n $end
$var wire 1 ! o_valid_serial $end
$var wire 8 P o_data_serial [7:0] $end
$var wire 1 Q enc_valid_out $end
$var wire 72 R enc_codeword [71:0] $end
$var reg 1 S assembled $end
$var reg 1 T assembled_req $end
$var reg 3 U byte_cnt [2:0] $end
$var reg 64 V data64 [63:0] $end
$var reg 72 W enc_codeword_r [71:0] $end
$var reg 1 X enc_valid_r $end
$scope module enc $end
$var wire 1 & clk $end
$var wire 64 Y i_data [63:0] $end
$var wire 1 S i_valid_datain $end
$var wire 1 * rst_n $end
$var reg 1 Q i_valid_dataout $end
$var reg 72 Z o_data_crypt [71:0] $end
$var reg 1 [ parity_bit $end
$var reg 72 \ tmp [71:0] $end
$var integer 32 ] d_idx [31:0] $end
$var integer 32 ^ p [31:0] $end
$var integer 32 _ pos [31:0] $end
$scope begin Hamming_parity_compute $end
$var integer 32 ` pow2 [31:0] $end
$upscope $end
$upscope $end
$scope module p2s $end
$var wire 1 & clk $end
$var wire 72 a i_data_parral [71:0] $end
$var wire 1 X i_valid_parral $end
$var wire 8 b o_data_serial [7:0] $end
$var wire 1 ! o_valid_serial $end
$var reg 72 c buffer [71:0] $end
$var reg 8 d data_out_r [7:0] $end
$var reg 1 e sending $end
$var reg 1 f valid_out_r $end
$var reg 4 g word_cnt [3:0] $end
$var reg 5 h words_remaining [4:0] $end
$scope function clog2 $end
$var integer 32 i i [31:0] $end
$var integer 32 j value [31:0] $end
$upscope $end
$upscope $end
$upscope $end
$scope begin $unm_blk_83 $end
$var reg 1 k mismatch $end
$var integer 32 l k [31:0] $end
$upscope $end
$scope task send_byte $end
$var reg 8 m b [7:0] $end
$upscope $end
$upscope $end
$enddefinitions $end
#0
$dumpvars
bx m
bx l
xk
bx j
bx i
b0 h
b0 g
0f
0e
b0 d
b0 c
b0 b
b0 a
b1000000 `
b1001001 _
b111 ^
b1000000 ]
b0 \
0[
b0 Z
b0 Y
0X
b0 W
b0 V
b0 U
0T
0S
b0 R
0Q
b0 P
b0 O
bx N
bx M
b0 L
b0 K
b0 J
b0 I
b1000000 H
0G
bx F
bx E
xD
b1001001 C
b111 B
b1000000 A
0@
b0 ?
b0 >
b0 =
0<
b0 ;
b0 :
b0 9
b0 8
07
b0 6
b0 5
b0 4
03
b0 2
01
00
b0 /
b0 .
0-
b0 ,
b0 +
0*
0)
b0 (
0'
0&
b0 %
b0 $
0#
0"
0!
$end
#5000
1&
#10000
0&
#15000
1*
1&
#20000
0&
#25000
1&
#30000
0&
#35000
b1 m
1&
#40000
1)
b1 (
b1 O
0&
#45000
0[
b1000000 `
b111 ^
b100000000000000000000000000000000000000000000000000000000000000000000111 \
b1001001 _
b1000000 ]
b1 U
b1 V
b1 Y
b1 ,
1&
#50000
0)
0&
#55000
b100011 m
1&
#60000
1)
b100011 (
b100011 O
0&
#65000
0[
b1000000 `
b111 ^
b1001001 _
b1000000 ]
b100000000000000000000000000000000000000000000000000001001011000000000111 \
b10 U
b10001100000001 V
b10001100000001 Y
b10 ,
1&
#70000
0)
0&
#75000
b1000101 m
1&
#80000
1)
b1000101 (
b1000101 O
0&
#85000
0[
b1000000 `
b111 ^
b1001001 _
b1000000 ]
b1000101001000011000000000101 \
b11 U
b10001010010001100000001 V
b10001010010001100000001 Y
b11 ,
1&
#90000
0)
0&
#95000
b1100111 m
1&
#100000
1)
b1100111 (
b1100111 O
0&
#105000
0[
b1000000 `
b111 ^
b1001001 _
b1000000 ]
b100000000000000000000000000000000001100111101000101001000011000000000100 \
b100 U
b1100111010001010010001100000001 V
b1100111010001010010001100000001 Y
b100 ,
1&
#110000
0)
0&
#115000
b10001001 m
1&
#120000
1)
b10001001 (
b10001001 O
0&
#125000
0[
b1000000 `
b111 ^
b1001001 _
b1000000 ]
b100000000000000000000000001000100101100101101000101001000011000000000111 \
b101 U
b1000100101100111010001010010001100000001 V
b1000100101100111010001010010001100000001 Y
b101 ,
1&
#130000
0)
0&
#135000
b10101011 m
1&
#140000
1)
b10101011 (
b10101011 O
0&
#145000
0[
b1000000 `
b111 ^
b1001001 _
b1000000 ]
b100000000000000000101010111000100101100111101000101001000011000010001100 \
b110 U
b101010111000100101100111010001010010001100000001 V
b101010111000100101100111010001010010001100000001 Y
b110 ,
1&
#150000
0)
0&
#155000
b11001101 m
1&
#160000
1)
b11001101 (
b11001101 O
0&
#165000
0[
b1000000 `
b111 ^
b1001001 _
b1000000 ]
b100000000011001101101010111000100101100101101000101001001011000010000111 \
b111 U
b11001101101010111000100101100111010001010010001100000001 V
b11001101101010111000100101100111010001010010001100000001 Y
b111 ,
1&
#170000
0)
0&
#175000
b11101111 m
1&
#180000
1)
b11101111 (
b11101111 O
0&
#185000
0[
b1000000 `
b111 ^
b1001001 _
b1000000 ]
b111101110111001101101010111000100101100111101000101001000011000000000100 \
b0 U
1T
b1110111111001101101010111000100101100111010001010010001100000001 V
b1110111111001101101010111000100101100111010001010010001100000001 Y
1'
b1000 ,
1&
#190000
0)
0&
#195000
1S
1&
#200000
0&
#205000
0T
1Q
b111101110111001101101010111000100101100111101000101001000011000000000100 R
b111101110111001101101010111000100101100111101000101001000011000000000100 Z
1&
#210000
0&
#215000
1X
b111101110111001101101010111000100101100111101000101001000011000000000100 W
b111101110111001101101010111000100101100111101000101001000011000000000100 a
0S
1&
#220000
0&
#225000
0Q
b1001 h
1e
b111101110111001101101010111000100101100111101000101001000011000000000100 c
1&
#230000
0&
#235000
0X
b1000 h
1!
1f
b1 g
b100 $
b100 /
b100 I
b100 P
b100 b
b100 d
1&
#240000
0&
#245000
b111 h
b10 g
b110000 $
b110000 /
b110000 I
b110000 P
b110000 b
b110000 d
1!
1f
b1 K
b100 J
1&
#250000
0&
#255000
b10 K
b110 h
b11 g
b10100100 $
b10100100 /
b10100100 I
b10100100 P
b10100100 b
b10100100 d
1!
1f
b11000000000100 J
1&
#260000
0&
#265000
b101 h
b100 g
b11101000 $
b11101000 /
b11101000 I
b11101000 P
b11101000 b
b11101000 d
1!
1f
b11 K
b101001000011000000000100 J
1&
#270000
0&
#275000
b100 K
b100 h
b101 g
b1011001 $
b1011001 /
b1011001 I
b1011001 P
b1011001 b
b1011001 d
1!
1f
b11101000101001000011000000000100 J
1&
#280000
0&
#285000
b11 h
b110 g
b11100010 $
b11100010 /
b11100010 I
b11100010 P
b11100010 b
b11100010 d
1!
1f
b101 K
b101100111101000101001000011000000000100 J
1&
#290000
0&
#295000
b110 K
b10 h
b111 g
b1101010 $
b1101010 /
b1101010 I
b1101010 P
b1101010 b
b1101010 d
1!
1f
b111000100101100111101000101001000011000000000100 J
1&
#300000
0&
#305000
b1 h
b1000 g
b1110011 $
b1110011 /
b1110011 I
b1110011 P
b1110011 b
b1110011 d
1!
1f
b111 K
b1101010111000100101100111101000101001000011000000000100 J
1&
#310000
0&
#315000
b1000 K
b0 h
b1001 g
b11110111 $
b11110111 /
b11110111 I
b11110111 P
b11110111 b
b11110111 d
1!
1f
b111001101101010111000100101100111101000101001000011000000000100 J
1&
#320000
0&
#325000
b1110111111001101101010111000100101100111010001010010001100000001 :
b1000000 A
b111101110111001101101010111000100101100111101000101001000011000000000100 9
0G
b1001001 C
b1000000 H
b111 B
b111101110111001101101010111000100101100111101000101001000011000000000100 =
0e
b0 $
b0 /
b0 I
b0 P
b0 b
b0 d
0!
0f
b0 K
1-
b111101110111001101101010111000100101100111101000101001000011000000000100 .
b111101110111001101101010111000100101100111101000101001000011000000000100 8
b111101110111001101101010111000100101100111101000101001000011000000000100 L
b111101110111001101101010111000100101100111101000101001000011000000000100 J
1&
#330000
0&
#335000
10
b1110111111001101101010111000100101100111010001010010001100000001 2
b1110111111001101101010111000100101100111010001010010001100000001 ;
0-
b1001001 C
0D
b1000000 E
b111 F
1&
#340000
0&
#345000
17
b1110111111001101101010111000100101100111010001010010001100000001 5
00
1&
#350000
0&
#355000
b1 6
1"
b1 %
b1 4
1&
#360000
0&
#365000
b10 6
b100011 %
b100011 4
1"
b1 +
1&
#370000
0&
#375000
b11 6
b1000101 %
b1000101 4
1"
b10 +
1&
#380000
0&
#385000
b100 6
b1100111 %
b1100111 4
1"
b11 +
1&
#390000
0&
#395000
b101 6
b10001001 %
b10001001 4
1"
b100 +
1&
#400000
0&
#405000
b110 6
b10101011 %
b10101011 4
1"
b101 +
1&
#410000
0&
#415000
b111 6
b11001101 %
b11001101 4
1"
b110 +
1&
#420000
0&
#425000
b0 6
07
b11101111 %
b11101111 4
1"
b111 +
1&
#430000
0&
#435000
0"
0'
b0 ,
b1000 l
0k
b0 +
1&
